%YAML 1.1
%TAG !u! tag:unity3d.com,2011:
--- !u!1045 &1
EditorBuildSettings:
  m_ObjectHideFlags: 0
  serializedVersion: 2
  m_Scenes:
  - enabled: 1
    path: Assets/Scenes/00-Init.unity
    guid: 51432f61232ae284da81367eeb8627fc
  - enabled: 1
    path: Assets/Scenes/01-Home.unity
    guid: 01cc7d6e58bfa7b4f820e5553f859caf
  - enabled: 1
    path: Assets/Scenes/02-Shop.unity
    guid: c015a0dbd7a103542b0b40b8e08f83cd
  - enabled: 1
    path: Assets/Scenes/03-BuyTool.unity
    guid: 8c1ec8b25317fca48a8d6e2709b950cc
  - enabled: 1
    path: Assets/Scenes/04-Game.unity
    guid: 7c038f876e0fb6947800ad5302faa47e
